1;U-01;V-01;52,123456789;86.123456789
2;U-02;V-02;52,123456789;86.123456789
3;U-03;V-03;52,1234567891;86.1234567891
4;U-03;V-03;52,1234567892;86.1234567892
5;U-04;V-04;52,1234567891;86.1234567891
6;U-04;V-04;52,1234567892;86.1234567892
7;U-04;V-04;52,1234567893;86.1234567893
8;U-05;V-05;52,1234567891;86.1234567891
9;U-05;V-05;52,1234567892;86.1234567892
10;U-05;V-05;52,1234567893;86.1234567893
